Statistical inference: Race and Income using GSS Data
…
#tidy up p_val data frame for analysis and plotting
names(p_vals)[3:7] = c("Far Below Average", "Below Average", "Average", "Above Average", "Far Above Average")
p_val_tidy <- gather(p_vals, key = "income_range", value = "p_value", -age_range, -degree)
p_val_tidy <- p_val_tidy %>%
  mutate(test_result = ifelse(p_value >= .05,"Fail to Reject the Null", "Reject the Null"))

hypo_test <- p_val_tidy %>%
  select(-p_value)
#tidy but long hypothesis test results on sliced data
hypo_test

## # A tibble: 75 x 4
## # Groups:   age_range [3]
##    age_range   degree         income_range      test_result            
##    <fct>       <fct>          <chr>             <chr>                  
##  1 middle-aged Lt High School Far Below Average Reject the Null        
##  2 middle-aged High School    Far Below Average Reject the Null        
##  3 middle-aged Junior College Far Below Average Reject the Null        
##  4 middle-aged Bachelor       Far Below Average Reject the Null        
##  5 middle-aged Graduate       Far Below Average Reject the Null        
##  6 old         Lt High School Far Below Average Reject the Null        
##  7 old         High School    Far Below Average Reject the Null        
##  8 old         Junior College Far Below Average Fail to Reject the Null
##  9 old         Bachelor       Far Below Average Fail to Reject the Null
## 10 old         Graduate       Far Below Average Reject the Null        
## # ... with 65 more rows
…
